%YAML 1.1
%TAG !u! tag:unity3d.com,2011:
--- !u!114 &11400000
MonoBehaviour:
  m_ObjectHideFlags: 0
  m_PrefabParentObject: {fileID: 0}
  m_PrefabInternal: {fileID: 0}
  m_GameObject: {fileID: 0}
  m_Enabled: 1
  m_EditorHideFlags: 0
  m_Script: {fileID: 11500000, guid: ed072669dd7ce7b4c91c1c3f25f67bf7, type: 3}
  m_Name: Scania R_CARGO
  m_EditorClassIdentifier: 
  model: Scania R
  value: 10800
  icon: {fileID: 21300000, guid: ff7bab3d21a91494887ea9b4ecffc209, type: 3}
  fuel: {fileID: 11400000, guid: 8a2e140c4ffc98445806e28ef2f04e7a, type: 2}
  vehicleType: 1
  maxCapacity: 100
