%YAML 1.1
%TAG !u! tag:unity3d.com,2011:
--- !u!114 &11400000
MonoBehaviour:
  m_ObjectHideFlags: 0
  m_PrefabParentObject: {fileID: 0}
  m_PrefabInternal: {fileID: 0}
  m_GameObject: {fileID: 0}
  m_Enabled: 1
  m_EditorHideFlags: 0
  m_Script: {fileID: 11500000, guid: 16950bc7c4f7623408632ff0e3775e51, type: 3}
  m_Name: Marcos
  m_EditorClassIdentifier: 
  actorName: Marcos
  sprite_default: {fileID: 0}
  sprite_happy: {fileID: 0}
  sprite_angry: {fileID: 0}
  sprite_scary: {fileID: 0}
  sprite_ashamed: {fileID: 0}
  sprite_sad: {fileID: 0}
