%YAML 1.1
%TAG !u! tag:unity3d.com,2011:
--- !u!114 &11400000
MonoBehaviour:
  m_ObjectHideFlags: 0
  m_PrefabParentObject: {fileID: 0}
  m_PrefabInternal: {fileID: 0}
  m_GameObject: {fileID: 0}
  m_Enabled: 1
  m_EditorHideFlags: 0
  m_Script: {fileID: 11500000, guid: 4e2c274faa637ab43b1a5d90d9a0c35f, type: 3}
  m_Name: Diesel
  m_EditorClassIdentifier: 
  icon: {fileID: 21300000, guid: b9f6476583591924989b78fd2c6de3e6, type: 3}
  itemName: Diesel
  type: 7
  weight: 2
  fuelBase: 0
