%YAML 1.1
%TAG !u! tag:unity3d.com,2011:
--- !u!114 &11400000
MonoBehaviour:
  m_ObjectHideFlags: 0
  m_PrefabParentObject: {fileID: 0}
  m_PrefabInternal: {fileID: 0}
  m_GameObject: {fileID: 0}
  m_Enabled: 1
  m_EditorHideFlags: 0
  m_Script: {fileID: 11500000, guid: 72a6bdb0a447075438a1dbc2161c0e61, type: 3}
  m_Name: Garage
  m_EditorClassIdentifier: 
  storage:
  - vehicle: {fileID: 11400000, guid: c98540cfb8080254390c896505a03fc9, type: 2}
    inventory:
      slot:
        vehicle: {fileID: 11400000, guid: c98540cfb8080254390c896505a03fc9, type: 2}
        inventory:
          slot:
            vehicle: {fileID: 11400000, guid: c98540cfb8080254390c896505a03fc9, type: 2}
            inventory:
              slot:
                vehicle: {fileID: 11400000, guid: c98540cfb8080254390c896505a03fc9,
                  type: 2}
                age: 4380
              storage: []
            age: 4380
          storage: []
        age: 4380
      storage:
      - item: {fileID: 11400000, guid: d8e833794e39a1640a574fbac40ad33a, type: 2}
        amount: 9
      - item: {fileID: 11400000, guid: 54d8033731dd3754ebe8e849ce0ecb19, type: 2}
        amount: 25
      - item: {fileID: 11400000, guid: cc4e216f1bff39f4797bd048f69256d6, type: 2}
        amount: 19
    age: 4380
