%YAML 1.1
%TAG !u! tag:unity3d.com,2011:
--- !u!114 &11400000
MonoBehaviour:
  m_ObjectHideFlags: 0
  m_PrefabParentObject: {fileID: 0}
  m_PrefabInternal: {fileID: 0}
  m_GameObject: {fileID: 0}
  m_Enabled: 1
  m_EditorHideFlags: 0
  m_Script: {fileID: 11500000, guid: 56d1ba9709f7c0e4cb53ee57a01cb87b, type: 3}
  m_Name: Junk yard
  m_EditorClassIdentifier: 
  scenario:
    background: {fileID: 21300000, guid: be645e57fd26b404fb9cb22d3c18e49c, type: 3}
  actorsSpeachs:
  - actor: {fileID: 11400000, guid: 82ed3f3bbfaa933439fc38c3b675fcc7, type: 2}
    actions:
    - _type: 3
      isCompleted: 1
      changeExpressionTo: 0
      dialogue: 
      actorName: 
      font: {fileID: 0}
      options: []
      sfx: {fileID: 8300000, guid: 82d47cef75f5fa84d9f98a896a077cae, type: 3}
      music: {fileID: 0}
      background: {fileID: 0}
      delay: 0
      nextScreenplay: {fileID: 0}
      initLine: 0
      nextScene: 
    - _type: 3
      isCompleted: 1
      changeExpressionTo: 0
      dialogue: 
      actorName: 
      font: {fileID: 0}
      options: []
      sfx: {fileID: 8300000, guid: a289df7df7c8bde4ea27d0b892b16a81, type: 3}
      music: {fileID: 0}
      background: {fileID: 0}
      delay: 0
      nextScreenplay: {fileID: 0}
      initLine: 0
      nextScene: 
    - _type: 1
      isCompleted: 0
      changeExpressionTo: 0
      dialogue: "\r(Radio) Come back with something interesting this time, please..."
      actorName: Female voice
      font: {fileID: 12800000, guid: 9985919b04d78b04ba8451808f2bc34d, type: 3}
      options: []
      sfx: {fileID: 0}
      music: {fileID: 0}
      background: {fileID: 0}
      delay: 0
      nextScreenplay: {fileID: 0}
      initLine: 0
      nextScene: 
    - _type: 3
      isCompleted: 0
      changeExpressionTo: 0
      dialogue: 
      actorName: 
      font: {fileID: 0}
      options: []
      sfx: {fileID: 8300000, guid: 5c1687a6c836d9b4dbcc4e734ccdf132, type: 3}
      music: {fileID: 0}
      background: {fileID: 0}
      delay: 0
      nextScreenplay: {fileID: 0}
      initLine: 0
      nextScene: 
    - _type: 9
      isCompleted: 0
      changeExpressionTo: 0
      dialogue: 
      actorName: 
      font: {fileID: 0}
      options: []
      sfx: {fileID: 0}
      music: {fileID: 0}
      background: {fileID: 0}
      delay: 0
      nextScreenplay: {fileID: 0}
      initLine: 0
      nextScene: 
